{
	"fname_xpath": "//input[@id='firstName']",
	"lname_xpath": "//input[@id='lastName']",
	"phone_number_xpath": "//input[@placeholder='+1 (702) 123-4567']",
	"dob_xpath": "//input[@id='dateOfBirth']",
	"email_xpath": "//input[@id='email']",
	"password_xpath": "//input[@id='password']",
	"confirm_password_xpath": "//input[@id='confirmPassword']",
	"tnc_checkbox_xpath": "//label[@for='loginTNC']",
	"subscribe_checkbox_xpath": "//input[@id='loginGoodStuff']",
	"submit_button_xpath": "//button[@type='submit']"
}